{
  "disclaimer": "Usage subject to terms: https://openexchangerates.org/terms",
  "license": "https://openexchangerates.org/license",
  "timestamp": 1495641600,
  "base": "USD",
  "rates": {
    "AED": 3.673014,
    "AFN": 68.373,
    "ALL": 120.48,
    "AMD": 483.098772,
    "ANG": 1.780807,
    "AOA": 165.9145,
    "ARS": 16.1024,
    "AUD": 1.340098,
    "AWG": 1.799996,
    "AZN": 1.7,
    "BAM": 1.74875,
    "BBD": 2,
    "BDT": 80.739812,
    "BGN": 1.749802,
    "BHD": 0.377053,
    "BIF": 1720,
    "BMD": 1,
    "BND": 1.38889,
    "BOB": 6.953177,
    "BRL": 3.268505,
    "BSD": 1,
    "BTC": 0.000415514186,
    "BTN": 64.740143,
    "BWP": 10.38191,
    "BYN": 1.855807,
    "BZD": 2.010911,
    "CAD": 1.345546,
    "CDF": 1417.5,
    "CHF": 0.976956,
    "CLF": 0.025073,
    "CLP": 674.3,
    "CNH": 6.878463,
    "CNY": 6.8907,
    "COP": 2904.53,
    "CRC": 583.299167,
    "CUC": 1,
    "CUP": 25.5,
    "CVE": 98.95,
    "CZK": 23.672983,
    "DJF": 178.79,
    "DKK": 6.658981,
    "DOP": 47.155,
    "DZD": 108.5295,
    "EGP": 18.1147,
    "ERN": 15.340585,
    "ETB": 23.15,
    "EUR": 0.894888,
    "FJD": 2.074747,
    "FKP": 0.773128,
    "GBP": 0.773128,
    "GEL": 2.4086,
    "GGP": 0.773128,
    "GHS": 4.375,
    "GIP": 0.773128,
    "GMD": 46.11,
    "GNF": 9125,
    "GTQ": 7.339789,
    "GYD": 208.085732,
    "HKD": 7.788857,
    "HNL": 23.445894,
    "HRK": 6.644585,
    "HTG": 68.595378,
    "HUF": 275.44875,
    "IDR": 13305.457433,
    "ILS": 3.59077,
    "IMP": 0.773128,
    "INR": 64.75225,
    "IQD": 1181.5,
    "IRR": 32454.938798,
    "ISK": 100.813687,
    "JEP": 0.773128,
    "JMD": 130.060503,
    "JOD": 0.709101,
    "JPY": 112.0425,
    "KES": 103.286215,
    "KGS": 67.885152,
    "KHR": 4055,
    "KMF": 440.05,
    "KPW": 900.09,
    "KRW": 1124.05,
    "KWD": 0.3036,
    "KYD": 0.833741,
    "KZT": 311.38,
    "LAK": 8197.5,
    "LBP": 1511.5,
    "LKR": 152.75,
    "LRD": 94.497383,
    "LSL": 12.962755,
    "LYD": 1.4,
    "MAD": 9.7742,
    "MDL": 18.239949,
    "MGA": 3095,
    "MKD": 55.1125,
    "MMK": 1371.65,
    "MNT": 2410.867396,
    "MOP": 8.025755,
    "MRO": 362.5,
    "MUR": 34.7785,
    "MVR": 15.599779,
    "MWK": 726.065,
    "MXN": 18.57071,
    "MYR": 4.283024,
    "MZN": 70.932906,
    "NAD": 12.94875,
    "NGN": 324.5,
    "NIO": 29.95,
    "NOK": 8.393866,
    "NPR": 103.664379,
    "NZD": 1.426274,
    "OMR": 0.385015,
    "PAB": 1,
    "PEN": 3.281157,
    "PGK": 3.2934,
    "PHP": 49.965,
    "PKR": 104.775,
    "PLN": 3.741961,
    "PYG": 5637.6,
    "QAR": 3.641674,
    "RON": 4.071409,
    "RSD": 109.815,
    "RUB": 56.5665,
    "RWF": 825,
    "SAR": 3.75025,
    "SBD": 7.90339,
    "SCR": 13.356041,
    "SDG": 6.68,
    "SEK": 8.71237,
    "SGD": 1.389519,
    "SHP": 0.773128,
    "SLL": 7452.169019,
    "SOS": 578.581731,
    "SRD": 7.5375,
    "SSP": 118.5751,
    "STD": 21725.23851,
    "SVC": 8.754055,
    "SYP": 214.36,
    "SZL": 13.08,
    "THB": 34.3785,
    "TJS": 8.813937,
    "TMT": 3.499986,
    "TND": 2.440152,
    "TOP": 2.311691,
    "TRY": 3.569786,
    "TTD": 6.733077,
    "TWD": 30.17855,
    "TZS": 2237.1,
    "UAH": 26.2625,
    "UGX": 3611.6,
    "USD": 1,
    "UYU": 28.225624,
    "UZS": 3825,
    "VEF": 10.11255,
    "VND": 22662.723818,
    "VUV": 108.197303,
    "WST": 2.568925,
    "XAF": 586.319868,
    "XAG": 0.05860645,
    "XAU": 0.0007992,
    "XCD": 2.70255,
    "XDR": 0.724121,
    "XOF": 586.986139,
    "XPD": 0.00131494,
    "XPF": 107.071672,
    "XPT": 0.0010616,
    "YER": 250.25,
    "ZAR": 12.95901,
    "ZMW": 9.295,
    "ZWL": 322.322775
  }
}